{
  "name": "",
  "css_prefix_text": "icon-",
  "css_use_suffix": false,
  "hinting": true,
  "units_per_em": 1000,
  "ascent": 850,
  "glyphs": [
    {
      "uid": "b1bea1f8847fbaa32ba458f4818caa0b",
      "css": "arrow-right",
      "code": 59393,
      "src": "custom_icons",
      "selected": true,
      "svg": {
        "path": "M773.4 849.1C988.5 627.1 954.7 534.5 736.4 747.7 635.1 846.6 552.3 944 552.3 964.2 552.3 1037.7 629.5 997.5 773.4 849.1ZM1104.6 521.8C1104.6 464.2 599.2-28 570 1.2 550.8 20.5 626.1 129 737.3 242.4L939.7 448.5H469.8C187.3 448.5 0 466.9 0 494.6 0 522.7 214.8 540.6 552.3 540.6 856.1 540.6 1104.6 532.1 1104.6 521.8Z",
        "width": 1105
      },
      "search": [
        "arrow-right"
      ]
    },
    {
      "uid": "200fe7e73bb29a5bc94660ce8c6d466d",
      "css": "arrow-left",
      "code": 59394,
      "src": "custom_icons",
      "selected": true,
      "svg": {
        "path": "M331.2 849.1C116.1 627.1 149.9 534.5 368.2 747.7 469.5 846.6 552.3 944 552.3 964.2 552.3 1037.7 475.1 997.5 331.2 849.1ZM0 521.8C0 464.2 505.4-28 534.6 1.2 553.8 20.5 478.5 129 367.3 242.4L164.9 448.5H634.8C917.3 448.5 1104.6 466.9 1104.6 494.6 1104.6 522.7 889.8 540.6 552.3 540.6 248.5 540.6 0 532.1 0 521.8Z",
        "width": 1105
      },
      "search": [
        "arrow-left"
      ]
    },
    {
      "uid": "73fbfd1a616d6a30c51ba4e6417c689c",
      "css": "curve-arrow-left",
      "code": 59398,
      "src": "custom_icons",
      "selected": true,
      "svg": {
        "path": "M239.5 750L0 500 239.5 250C371.2 112.5 516.1 0 561.3 0 606.5 0 555.5 93.8 447.8 208.3L252.1 416.7H641.7C1060.9 416.7 1367.5 620.8 1361.2 895.8 1358.7 999.8 1322.2 975.9 1233.5 812.5 1122.7 608.3 1062.5 583.3 680.7 583.3H252.1L447.8 791.7C555.5 906.2 606.5 1000 561.3 1000 516.1 1000 371.2 887.5 239.5 750Z",
        "width": 1361
      },
      "search": [
        "curve-arrow-left"
      ]
    },
    {
      "uid": "61d7d7f5389710d6ae102aa067730421",
      "css": "heart",
      "code": 59399,
      "src": "custom_icons",
      "selected": true,
      "svg": {
        "path": "M210.5 754.1C83.2 605.5 0 446.3 0 351.5 0 198.5 155.3 0 274.9 0 359.1 0 529.4 198.9 529.4 297.1 529.4 346.4 492.8 326.9 437.8 248.4 331.3 96.2 220.8 81.5 117.7 205.8 25 317.6 121 574.4 328.3 769.1L470.6 902.9 612.9 769.1C817 577.4 916.2 317.5 826.4 209.4 787.8 162.8 698.5 114.5 628.1 102.1 512.7 81.8 510.4 74.9 605.1 32.6 748.9-31.5 941.2 150.9 941.2 351.5 941.2 502.4 580.1 1000 470.6 1000 443.3 1000 326.2 889.4 210.5 754.1Z",
        "width": 941
      },
      "search": [
        "heart"
      ]
    },
    {
      "uid": "44e04715aecbca7f266a17d5a7863c68",
      "css": "plus",
      "code": 59392,
      "src": "fontawesome"
    },
    {
      "uid": "861ab06e455e2de3232ebef67d60d708",
      "css": "minus",
      "code": 59395,
      "src": "fontawesome"
    },
    {
      "uid": "e4dde1992f787163e2e2b534b8c8067d",
      "css": "angle-down",
      "code": 61703,
      "src": "fontawesome"
    },
    {
      "uid": "5de9370846a26947e03f63142a3f1c07",
      "css": "angle-up",
      "code": 61702,
      "src": "fontawesome"
    },
    {
      "uid": "12f4ece88e46abd864e40b35e05b11cd",
      "css": "ok",
      "code": 59396,
      "src": "fontawesome"
    },
    {
      "uid": "bcdbc2ecde8926fd4fd7ec8d26d064ea",
      "css": "bars",
      "code": 59397,
      "src": "custom_icons",
      "selected": true,
      "svg": {
        "path": "M1.3 900C1.3 816.9 131 800 768 800 1405 800 1534.7 816.9 1534.7 900 1534.7 983.1 1405 1000 768 1000 131 1000 1.3 983.1 1.3 900ZM1.3 500C1.3 416.9 131 400 768 400 1405 400 1534.7 416.9 1534.7 500 1534.7 583.1 1405 600 768 600 131 600 1.3 583.1 1.3 500ZM1.3 100C1.3 16.9 131 0 768 0 1405 0 1534.7 16.9 1534.7 100 1534.7 183.1 1405 200 768 200 131 200 1.3 183.1 1.3 100Z",
        "width": 1540
      },
      "search": [
        "bars"
      ]
    },
    {
      "uid": "2e2dba0307a502a8507c1729084c7ab5",
      "css": "cancel-circled2",
      "code": 59400,
      "src": "fontawesome"
    },
    {
      "uid": "588317b2cefe8755e087ba2a8c474f30",
      "css": "cross-in-round",
      "code": 59392,
      "src": "custom_icons",
      "selected": false,
      "svg": {
        "path": "M169.7 830.3C-56.6 604-56.6 396 169.7 169.7 396-56.6 604-56.6 830.3 169.7 1056.6 396 1056.6 604 830.3 830.3 604 1056.6 396 1056.6 169.7 830.3ZM776.1 776.1C888.5 663.7 888.5 336.3 776.1 223.9 728.2 175.9 603.9 136.7 500 136.7 259.9 136.7 136.7 259.9 136.7 500 136.7 740.1 259.9 863.3 500 863.3 603.9 863.3 728.2 824.1 776.1 776.1ZM431.2 500C502.9 500 215.6 212.9 500 385.8 500 385.8 676.6 281.8 607.7 422.1 591.6 455 707.6 607.7 621 612.5 557.4 616.1 707.6 607.7 707.6 607.7 692.3 621.1 597.9 590.7 541.7 564.7 500.5 545.7 492.6 520.5 487.1 559.1 473.8 653.1 313 588.7 412.9 513.8Z",
        "width": 1000
      },
      "search": [
        "cross-in-round"
      ]
    },
    {
      "uid": "6b157cb8e84e4bfcb692d5f2ce70d91d",
      "css": "minus",
      "code": 59395,
      "src": "custom_icons",
      "selected": false,
      "svg": {
        "path": "",
        "width": 3000
      },
      "search": [
        "minus"
      ]
    },
    {
      "uid": "51d8c5a34a029cb5fd040f84f9afc6f1",
      "css": "angle-up",
      "code": 59397,
      "src": "custom_icons",
      "selected": false,
      "svg": {
        "path": "M339.8 448.6C108 695.3-40.5 938.4 9.8 988.7 60.1 1039 248.9 917 429.3 717.6L757.4 355.1 1175.4 747.8C1405.3 963.7 1593.4 1059.8 1593.4 961.1 1593.4 862.5 1406.2 605.9 1177.3 390.9L761.2 0Z",
        "width": 1593
      },
      "search": [
        "angle-up"
      ]
    },
    {
      "uid": "7a2511174a25f45d5dc932083939382b",
      "css": "angle-down",
      "code": 59400,
      "src": "custom_icons",
      "selected": false,
      "svg": {
        "path": "M339.8 551.4C108 304.7-40.5 61.6 9.8 11.3 60.1-39 248.9 83 429.3 282.4L757.4 644.9 1175.4 252.2C1405.3 36.3 1593.4-59.8 1593.4 38.9 1593.4 137.5 1406.2 394.1 1177.3 609.1L761.2 1000Z",
        "width": 1593
      },
      "search": [
        "angle-down"
      ]
    },
    {
      "uid": "1c6ec29f29393363c7a144728ea79ce4",
      "css": "plus",
      "code": 59401,
      "src": "custom_icons",
      "selected": false,
      "svg": {
        "path": "M336.9 831C336.9 740 402.9 569.5 311.8 569.5 220.8 569.5 5.9 591 5.9 500 5.9 409 225.7 420.7 316.8 420.7 407.8 420.7 336.9 260 336.9 169 336.9 77.9 411.4 3.5 502.5 3.5 593.5 3.5 668 77.9 668 169 668 260 609.5 396.1 700.5 396.1 791.5 396.1 999 409 999 500 999 591 789.1 574.4 698 574.4 607 574.4 668 740 668 831 668 922.1 593.5 996.6 502.5 996.6 411.4 996.6 336.9 922.1 336.9 831Z",
        "width": 1000
      },
      "search": [
        "plus"
      ]
    },
    {
      "uid": "769b8572680af97577039bb9f8d75e8b",
      "css": "tick",
      "code": 59402,
      "src": "custom_icons",
      "selected": false,
      "svg": {
        "path": "M175 927.9C-60.3 692.6-60.3 516.4 187 569.2 272.5 865.9 529.3 515 704.2 228.9 909.1-16.6 1007.6-63.8 1007.4 83.4 1007.1 203.4 859.3 482 678.7 702.5 422.4 1015.6 312.1 1064.9 175 927.9Z",
        "width": 1007
      },
      "search": [
        "tick"
      ]
    },
    {
      "uid": "ee01049ca90c9d03c23f50a69a7a6fb4",
      "css": "minus",
      "code": 59403,
      "src": "custom_icons",
      "selected": false,
      "svg": {
        "path": "",
        "width": 3000
      },
      "search": [
        "minus"
      ]
    }
  ]
}